<?xml version="1.0" encoding="UTF-8" standalone="no"?>
<!DOCTYPE svg PUBLIC "-//W3C//DTD SVG 1.1//EN" "http://www.w3.org/Graphics/SVG/1.1/DTD/svg11.dtd">
<svg width="100%" height="100%" viewBox="0 0 1570 75" version="1.1" xmlns="http://www.w3.org/2000/svg" xmlns:xlink="http://www.w3.org/1999/xlink" xml:space="preserve" xmlns:serif="http://www.serif.com/" style="fill-rule:evenodd;clip-rule:evenodd;stroke-linecap:round;stroke-linejoin:round;stroke-miterlimit:1.5;">
    <g transform="matrix(1,0,0,1,-269,-696.938)">
        <g transform="matrix(1,0,0,-1,0,1467.94)">
            <g transform="matrix(-1,0,0,1.30739,2108,-235.464)">
                <path d="M274,717C289.699,773.63 416.585,694.936 644,738C876.207,781.972 978.711,690.711 1054,766" style="fill:none;stroke:rgb(255,176,52);stroke-width:8.59px;"/>
            </g>
            <g transform="matrix(1,0,0,1.30739,1.13687e-13,-235.464)">
                <path d="M274,717C289.699,773.63 416.585,694.936 644,738C876.207,781.972 978.711,690.711 1054,766" style="fill:none;stroke:rgb(255,176,52);stroke-width:8.59px;"/>
            </g>
        </g>
    </g>
</svg>
